{
	"name": "w3tpl",
	"author": "[https://wooz.dev Woozalia Nicola Staddon]",
	"license-name": "GPL-2.0+",
	"url": "http://wooz.dev/W3TPL",
	"descriptionmsg": "w3tpl-desc",
	"type": "parserhook",
	"version": "2.32 dev 2022-05-02",
	"MessagesDirs": {
		"w3tpl": [
			"i18n"
		]
	},
	"SpecialPages": {
		"W3TPL": "w3tpl\\cSpecialPage"
	},
	"Hooks": {
		"ParserFirstCallInit": [
			"w3tpl\\cEntryPoint::cbInit"
		]
	},
	"AutoloadClasses": {
		"w3tpl\\cEntryPoint"  : "classes/start.php",
		"w3tpl\\cExtension"   : "extension.php",
		"w3tpl\\xcModule"     : "classes/modules.php",
		"w3tpl\\cOptions"     : "config/links/options.php",
		"w3tpl\\cSpecialPage" : "classes/spage.php",
		"w3tpl\\caTag"        : "classes/tags.php",
 		"w3tpl\\caTag_Var"    : "classes/tags.var.php",
		"w3tpl\\cTemplate"    : "classes/tplt.php",
		"w3tpl\\csVar"        : "classes/vars.php"
    },
    "manifest_version": 1
}
